[
    {
        "name": "Jan Meewes",
        "kilometers": 6840.982,
        "laps": 310,
        "id": 39858
    },
    {
        "name": "Arjan Qayumi",
        "kilometers": 6230.415,
        "laps": 255,
        "id": 132345
    },
    {
        "name": "Yoan Neshev",
        "kilometers": 3697.998,
        "laps": 426,
        "id": 136295
    },
    {
        "name": "Yonny Menglez",
        "kilometers": 3406.418,
        "laps": 689,
        "id": 101434
    },
    {
        "name": "Carlos Hierro",
        "kilometers": 2925.429,
        "laps": 226,
        "id": 49703
    },
    {
        "name": "Christian Bucher",
        "kilometers": 2820.396,
        "laps": 201,
        "id": 60921
    },
    {
        "name": "Christian Lutz",
        "kilometers": 2250.867,
        "laps": 368,
        "id": 45946
    },
    {
        "name": "Andi Lederer",
        "kilometers": 2150.104,
        "laps": 88,
        "id": 26573
    },
    {
        "name": "Mertcan Oezbey",
        "kilometers": 1881.341,
        "laps": 77,
        "id": 52177
    },
    {
        "name": "Sabrina DiFronzo",
        "kilometers": 1799.356,
        "laps": 349,
        "id": 68875
    },
    {
        "name": "Carl Crämisch",
        "kilometers": 1792.493,
        "laps": 240,
        "id": 109514
    },
    {
        "name": "Daniel Sebastian | CIE",
        "kilometers": 1588.145,
        "laps": 65,
        "id": 58341
    },
    {
        "name": "Torsten Horn | BRR",
        "kilometers": 1463.45,
        "laps": 220,
        "id": 102761
    },
    {
        "name": "Artem Kvasov",
        "kilometers": 1441.547,
        "laps": 59,
        "id": 96743
    },
    {
        "name": "Lars Ehlers",
        "kilometers": 1363.457,
        "laps": 273,
        "id": 1951
    },
    {
        "name": "Salvatore Ferrandino",
        "kilometers": 1304.111,
        "laps": 99,
        "id": 6967
    },
    {
        "name": "Jochen Weis",
        "kilometers": 1294.949,
        "laps": 53,
        "id": 4324
    },
    {
        "name": "Patrick Bachmaier",
        "kilometers": 1246.083,
        "laps": 51,
        "id": 165519
    },
    {
        "name": "Maurice Meser",
        "kilometers": 1246.083,
        "laps": 51,
        "id": 166934
    },
    {
        "name": "Elias Langer",
        "kilometers": 1221.65,
        "laps": 50,
        "id": 1305
    },
    {
        "name": "Akos Kemeny",
        "kilometers": 1146.388,
        "laps": 258,
        "id": 157099
    },
    {
        "name": "Luis Petzold",
        "kilometers": 1123.918,
        "laps": 46,
        "id": 67317
    },
    {
        "name": "Robert Lavery",
        "kilometers": 1123.918,
        "laps": 46,
        "id": 83101
    },
    {
        "name": "Jannik Rambach",
        "kilometers": 1123.886,
        "laps": 100,
        "id": 68863
    },
    {
        "name": "Gianmarco Massignan",
        "kilometers": 1092.116,
        "laps": 227,
        "id": 76657
    },
    {
        "name": "Michael Popig | iFel",
        "kilometers": 1075.052,
        "laps": 44,
        "id": 179057
    },
    {
        "name": "Oliver Reichelt | iFel",
        "kilometers": 1050.619,
        "laps": 43,
        "id": 38599
    },
    {
        "name": "Tobias Sasse",
        "kilometers": 1050.619,
        "laps": 43,
        "id": 159099
    },
    {
        "name": "Nico Westenberger",
        "kilometers": 1026.186,
        "laps": 42,
        "id": 3948
    },
    {
        "name": "Roman Kosatschenko",
        "kilometers": 985.626,
        "laps": 54,
        "id": 1283
    },
    {
        "name": "Nikolaii Polyakov",
        "kilometers": 981.741,
        "laps": 87,
        "id": 25698
    },
    {
        "name": "Kenny Tetzlaff",
        "kilometers": 928.454,
        "laps": 38,
        "id": 67960
    },
    {
        "name": "Philipp Holzmann",
        "kilometers": 928.454,
        "laps": 38,
        "id": 53371
    },
    {
        "name": "Simon Haber",
        "kilometers": 928.454,
        "laps": 38,
        "id": 136352
    },
    {
        "name": "Marian Bosch | 47R",
        "kilometers": 904.021,
        "laps": 37,
        "id": 113715
    },
    {
        "name": "Leon Deymann",
        "kilometers": 879.588,
        "laps": 36,
        "id": 51555
    },
    {
        "name": "Finley Wittrin",
        "kilometers": 879.588,
        "laps": 36,
        "id": 4812
    },
    {
        "name": "Andrew Barling",
        "kilometers": 841.105,
        "laps": 145,
        "id": 33747
    },
    {
        "name": "Kjeld Berg",
        "kilometers": 836.578,
        "laps": 95,
        "id": 114786
    },
    {
        "name": "Andrii Mochulskyi",
        "kilometers": 824.969,
        "laps": 170,
        "id": 125088
    },
    {
        "name": "Jakub Charkot",
        "kilometers": 781.856,
        "laps": 32,
        "id": 23930
    },
    {
        "name": "Heiko Krämer",
        "kilometers": 781.856,
        "laps": 32,
        "id": 6290
    },
    {
        "name": "Patrick Goldberg",
        "kilometers": 776.49,
        "laps": 123,
        "id": 115497
    },
    {
        "name": "Alejandro Garcia",
        "kilometers": 774.577,
        "laps": 92,
        "id": 21859
    },
    {
        "name": "Adrián Pastrana",
        "kilometers": 760.678,
        "laps": 116,
        "id": 79331
    },
    {
        "name": "Imanol Chantreau",
        "kilometers": 708.557,
        "laps": 29,
        "id": 84751
    },
    {
        "name": "Matthias WOLF",
        "kilometers": 689.291,
        "laps": 121,
        "id": 35534
    },
    {
        "name": "Justin Hoffmann",
        "kilometers": 684.124,
        "laps": 28,
        "id": 167977
    },
    {
        "name": "Cyril Weber",
        "kilometers": 665.965,
        "laps": 46,
        "id": 134110
    },
    {
        "name": "Christian Mochart",
        "kilometers": 659.691,
        "laps": 27,
        "id": 114283
    },
    {
        "name": "Leon Luul",
        "kilometers": 622.708,
        "laps": 69,
        "id": 102365
    },
    {
        "name": "Cristian Hispania [HRC]",
        "kilometers": 618.137,
        "laps": 135,
        "id": 30547
    },
    {
        "name": "Augustin Marx",
        "kilometers": 610.825,
        "laps": 25,
        "id": 95731
    },
    {
        "name": "Rob Walker",
        "kilometers": 607.065,
        "laps": 125,
        "id": 97533
    },
    {
        "name": "Ralf Runtemund",
        "kilometers": 604.887,
        "laps": 116,
        "id": 112341
    },
    {
        "name": "Tougheed Marlie",
        "kilometers": 585.065,
        "laps": 75,
        "id": 96687
    },
    {
        "name": "Felix Bostelmann",
        "kilometers": 569.341,
        "laps": 109,
        "id": 40942
    },
    {
        "name": "Alexander Jansen",
        "kilometers": 561.959,
        "laps": 23,
        "id": 171651
    },
    {
        "name": "Chris Smith",
        "kilometers": 552.191,
        "laps": 102,
        "id": 10985
    },
    {
        "name": "Oscar Fogazzi",
        "kilometers": 549.861,
        "laps": 99,
        "id": 156707
    },
    {
        "name": "Dimitri Angelopoulos",
        "kilometers": 546.269,
        "laps": 38,
        "id": 6487
    },
    {
        "name": "Luca John",
        "kilometers": 533.059,
        "laps": 113,
        "id": 90720
    },
    {
        "name": "Amedeo Castorino",
        "kilometers": 532.349,
        "laps": 65,
        "id": 5105
    },
    {
        "name": "Ludo Ainoux | BzG",
        "kilometers": 519.161,
        "laps": 104,
        "id": 7166
    },
    {
        "name": "Dawid Jakubowicz",
        "kilometers": 513.093,
        "laps": 21,
        "id": 109617
    },
    {
        "name": "James Barrett",
        "kilometers": 504.789,
        "laps": 101,
        "id": 73114
    },
    {
        "name": "Bastian Schmidt",
        "kilometers": 502.193,
        "laps": 99,
        "id": 5191
    },
    {
        "name": "Michael Köpcke",
        "kilometers": 489.448,
        "laps": 88,
        "id": 66337
    },
    {
        "name": "Marco Wolf",
        "kilometers": 488.66,
        "laps": 20,
        "id": 4408
    },
    {
        "name": "Steve Bailleul",
        "kilometers": 488.66,
        "laps": 20,
        "id": 130750
    },
    {
        "name": "Oliver Bunz",
        "kilometers": 464.227,
        "laps": 19,
        "id": 9296
    },
    {
        "name": "Car Carlau",
        "kilometers": 464.227,
        "laps": 19,
        "id": 19440
    },
    {
        "name": "Patrick Schirwandt",
        "kilometers": 464.227,
        "laps": 19,
        "id": 142125
    },
    {
        "name": "Stefan Heller | BHR",
        "kilometers": 464.227,
        "laps": 19,
        "id": 58242
    },
    {
        "name": "Roman Murzin",
        "kilometers": 464.227,
        "laps": 19,
        "id": 23264
    },
    {
        "name": "Stephan Quick",
        "kilometers": 462.264,
        "laps": 66,
        "id": 112373
    },
    {
        "name": "Sayjan Mario Cosse´|DRT",
        "kilometers": 457.922,
        "laps": 34,
        "id": 3491
    },
    {
        "name": "Wojtek Bogdanowicz",
        "kilometers": 451.204,
        "laps": 80,
        "id": 64151
    },
    {
        "name": "alberto garcia",
        "kilometers": 450.11,
        "laps": 84,
        "id": 146947
    },
    {
        "name": "Federico Di Camillo",
        "kilometers": 443.185,
        "laps": 88,
        "id": 5763
    },
    {
        "name": "Simon Schwarzbach",
        "kilometers": 439.794,
        "laps": 18,
        "id": 146020
    },
    {
        "name": "Bruce Wayne",
        "kilometers": 439.794,
        "laps": 18,
        "id": 177985
    },
    {
        "name": "Kevin Gadow",
        "kilometers": 439.794,
        "laps": 18,
        "id": 70161
    },
    {
        "name": "Theo SIEURIN",
        "kilometers": 439.794,
        "laps": 18,
        "id": 164646
    },
    {
        "name": "Marcel Buck",
        "kilometers": 439.794,
        "laps": 18,
        "id": 5039
    },
    {
        "name": "Sergio Revilla",
        "kilometers": 435.226,
        "laps": 65,
        "id": 5324
    },
    {
        "name": "Dieter Bletten",
        "kilometers": 430.644,
        "laps": 82,
        "id": 1668
    },
    {
        "name": "George Roberts",
        "kilometers": 427.516,
        "laps": 58,
        "id": 109675
    },
    {
        "name": "Filip Nevezi",
        "kilometers": 416.381,
        "laps": 85,
        "id": 166645
    },
    {
        "name": "Vincenzo Senatore",
        "kilometers": 415.361,
        "laps": 17,
        "id": 6491
    },
    {
        "name": "Dmitry Zemtsov",
        "kilometers": 415.361,
        "laps": 17,
        "id": 78425
    },
    {
        "name": "Larry der Lobster",
        "kilometers": 415.361,
        "laps": 17,
        "id": 3835
    },
    {
        "name": "István Tóth",
        "kilometers": 415.361,
        "laps": 17,
        "id": 62559
    },
    {
        "name": "Marcel Brahms",
        "kilometers": 415.361,
        "laps": 17,
        "id": 162885
    },
    {
        "name": "Otto Päivinen",
        "kilometers": 415.361,
        "laps": 17,
        "id": 150546
    },
    {
        "name": "Ryan Wileman",
        "kilometers": 415.361,
        "laps": 17,
        "id": 141000
    },
    {
        "name": "Phil Browne",
        "kilometers": 413.892,
        "laps": 69,
        "id": 86119
    },
    {
        "name": "alvaro inchausti",
        "kilometers": 408.705,
        "laps": 76,
        "id": 33082
    },
    {
        "name": "Leon Merkle",
        "kilometers": 402.52,
        "laps": 66,
        "id": 97544
    },
    {
        "name": "Patrick Gotzmeister",
        "kilometers": 402.163,
        "laps": 40,
        "id": 69777
    },
    {
        "name": "Eusebio Miranda",
        "kilometers": 401.948,
        "laps": 74,
        "id": 80623
    },
    {
        "name": "Gabriele Pallotti",
        "kilometers": 395.095,
        "laps": 47,
        "id": 33553
    },
    {
        "name": "James Tester",
        "kilometers": 392.884,
        "laps": 80,
        "id": 134857
    },
    {
        "name": "Shoto Botto",
        "kilometers": 390.928,
        "laps": 16,
        "id": 61871
    },
    {
        "name": "Pierre Bischof",
        "kilometers": 390.928,
        "laps": 16,
        "id": 144556
    },
    {
        "name": "Torsten Streng",
        "kilometers": 390.928,
        "laps": 16,
        "id": 145703
    },
    {
        "name": "Sebastian Sznip",
        "kilometers": 387.915,
        "laps": 73,
        "id": 147301
    },
    {
        "name": "Achim Tramm",
        "kilometers": 383.388,
        "laps": 82,
        "id": 39152
    },
    {
        "name": "Manuel Muehl",
        "kilometers": 377.569,
        "laps": 33,
        "id": 103357
    },
    {
        "name": "Thomas Gandl",
        "kilometers": 376.95,
        "laps": 75,
        "id": 140092
    },
    {
        "name": "Nikita Danilov",
        "kilometers": 376.592,
        "laps": 79,
        "id": 106499
    },
    {
        "name": "Artem Acharyan",
        "kilometers": 366.495,
        "laps": 15,
        "id": 107836
    },
    {
        "name": "Tom Nehring",
        "kilometers": 366.495,
        "laps": 15,
        "id": 51030
    },
    {
        "name": "joaquim collet",
        "kilometers": 360.19,
        "laps": 30,
        "id": 28393
    },
    {
        "name": "Ben Kyle",
        "kilometers": 354.872,
        "laps": 68,
        "id": 33744
    },
    {
        "name": "Eike Gansäuer",
        "kilometers": 348.583,
        "laps": 65,
        "id": 135219
    },
    {
        "name": "ALEJANDRO MUÑIZ",
        "kilometers": 337.035,
        "laps": 54,
        "id": 34632
    },
    {
        "name": "Tim Keienburg",
        "kilometers": 336.657,
        "laps": 63,
        "id": 108829
    },
    {
        "name": "Markus Süd",
        "kilometers": 335.919,
        "laps": 64,
        "id": 133106
    },
    {
        "name": "Adam Salman",
        "kilometers": 335.194,
        "laps": 66,
        "id": 79339
    },
    {
        "name": "Dennis Schöps",
        "kilometers": 332.261,
        "laps": 66,
        "id": 13457
    },
    {
        "name": "Miguel Angel gomez",
        "kilometers": 331.533,
        "laps": 54,
        "id": 96307
    },
    {
        "name": "Louis Mattlin",
        "kilometers": 330.999,
        "laps": 62,
        "id": 156333
    },
    {
        "name": "Marek Chytil",
        "kilometers": 329.188,
        "laps": 47,
        "id": 11491
    },
    {
        "name": "Nikita Rodnov",
        "kilometers": 328.907,
        "laps": 59,
        "id": 87098
    },
    {
        "name": "Laszlo Rinyu | LMLM",
        "kilometers": 328.796,
        "laps": 68,
        "id": 27747
    },
    {
        "name": "Mario Fernandez",
        "kilometers": 327.847,
        "laps": 34,
        "id": 86703
    },
    {
        "name": "Jeffrey Miguel Reno Richie",
        "kilometers": 325.099,
        "laps": 23,
        "id": 33247
    },
    {
        "name": "Daniel Café",
        "kilometers": 324.558,
        "laps": 64,
        "id": 95334
    },
    {
        "name": "Nils Bunsh | STR",
        "kilometers": 322.601,
        "laps": 66,
        "id": 108768
    },
    {
        "name": "Cédric Chouchou",
        "kilometers": 321.818,
        "laps": 64,
        "id": 117328
    },
    {
        "name": "Marcin Bąkowski",
        "kilometers": 321.505,
        "laps": 35,
        "id": 122660
    },
    {
        "name": "Mattia Quadrini | SRT",
        "kilometers": 321.163,
        "laps": 68,
        "id": 6926
    },
    {
        "name": "Christophe Trollat",
        "kilometers": 317.629,
        "laps": 13,
        "id": 103235
    },
    {
        "name": "Bastian Pinnekemper",
        "kilometers": 317.629,
        "laps": 13,
        "id": 113785
    },
    {
        "name": "Henrique Rocha",
        "kilometers": 317.629,
        "laps": 13,
        "id": 73800
    },
    {
        "name": "Martin Bača",
        "kilometers": 317.629,
        "laps": 13,
        "id": 117026
    },
    {
        "name": "André Oliveira",
        "kilometers": 317.629,
        "laps": 13,
        "id": 163907
    },
    {
        "name": "David Leite",
        "kilometers": 317.629,
        "laps": 13,
        "id": 125607
    },
    {
        "name": "Dennis Kenkmann",
        "kilometers": 315.989,
        "laps": 62,
        "id": 10234
    },
    {
        "name": "Antonio Moreno",
        "kilometers": 315.235,
        "laps": 57,
        "id": 140485
    },
    {
        "name": "Michael Rd",
        "kilometers": 314.741,
        "laps": 63,
        "id": 42294
    },
    {
        "name": "Mattia Brugnara",
        "kilometers": 314.715,
        "laps": 67,
        "id": 35878
    },
    {
        "name": "Uli Trettenbacher",
        "kilometers": 312.86,
        "laps": 50,
        "id": 135230
    },
    {
        "name": "Martin Ohrens",
        "kilometers": 312.157,
        "laps": 49,
        "id": 96580
    },
    {
        "name": "Mats Langstroem",
        "kilometers": 309.776,
        "laps": 57,
        "id": 79310
    },
    {
        "name": "Tobias Sievert",
        "kilometers": 308.776,
        "laps": 60,
        "id": 199990
    },
    {
        "name": "Rico Hofmuth",
        "kilometers": 308.419,
        "laps": 60,
        "id": 4923
    },
    {
        "name": "Javier González",
        "kilometers": 308.346,
        "laps": 69,
        "id": 21578
    },
    {
        "name": "Alfredo Ausina Sifre",
        "kilometers": 299.603,
        "laps": 29,
        "id": 134223
    },
    {
        "name": "Isaac Perales",
        "kilometers": 299.217,
        "laps": 72,
        "id": 66934
    },
    {
        "name": "Donaes Racer | IBZ",
        "kilometers": 293.713,
        "laps": 28,
        "id": 67035
    },
    {
        "name": "Brayan Silvera",
        "kilometers": 293.196,
        "laps": 12,
        "id": 162548
    },
    {
        "name": "Simon Kettenhofen",
        "kilometers": 293.196,
        "laps": 12,
        "id": 145359
    },
    {
        "name": "Jan Swayen",
        "kilometers": 292.103,
        "laps": 54,
        "id": 109902
    },
    {
        "name": "David Perez L.",
        "kilometers": 291.921,
        "laps": 63,
        "id": 55756
    },
    {
        "name": "Leon Kiwus",
        "kilometers": 285.716,
        "laps": 56,
        "id": 142057
    },
    {
        "name": "Carlo Gazolino",
        "kilometers": 283.44,
        "laps": 56,
        "id": 63940
    },
    {
        "name": "Evgen Artemenko",
        "kilometers": 281.824,
        "laps": 28,
        "id": 17951
    },
    {
        "name": "Özkan Akce",
        "kilometers": 280.35,
        "laps": 70,
        "id": 27785
    },
    {
        "name": "Michael Sengs",
        "kilometers": 274.663,
        "laps": 31,
        "id": 116134
    },
    {
        "name": "Tanel E Neitov",
        "kilometers": 268.87,
        "laps": 25,
        "id": 99579
    },
    {
        "name": "Chenfan Lyu",
        "kilometers": 268.763,
        "laps": 11,
        "id": 167591
    },
    {
        "name": "Ventura Salcedo",
        "kilometers": 267.752,
        "laps": 46,
        "id": 94284
    },
    {
        "name": "Tony Tequila l PWRT",
        "kilometers": 257.754,
        "laps": 57,
        "id": 150266
    },
    {
        "name": "Michael Smuda",
        "kilometers": 254.892,
        "laps": 44,
        "id": 93844
    },
    {
        "name": "Alexander Ivashenko",
        "kilometers": 250.079,
        "laps": 43,
        "id": 121870
    },
    {
        "name": "Jaroslav Honzik",
        "kilometers": 244.863,
        "laps": 44,
        "id": 14298
    },
    {
        "name": "Cody Sherratt",
        "kilometers": 244.863,
        "laps": 44,
        "id": 26085
    },
    {
        "name": "Sebastian Idziak",
        "kilometers": 244.33,
        "laps": 10,
        "id": 95919
    },
    {
        "name": "Miroslav Tregub",
        "kilometers": 244.33,
        "laps": 10,
        "id": 160874
    },
    {
        "name": "Jordan Daly",
        "kilometers": 244.33,
        "laps": 10,
        "id": 3679
    },
    {
        "name": "Kevin Golf | BHR",
        "kilometers": 244.33,
        "laps": 10,
        "id": 2004
    },
    {
        "name": "Tomas Voracek",
        "kilometers": 244.33,
        "laps": 10,
        "id": 188284
    },
    {
        "name": "Niklas Houben",
        "kilometers": 243.8,
        "laps": 44,
        "id": 1806
    },
    {
        "name": "Leon Berndt",
        "kilometers": 243.8,
        "laps": 44,
        "id": 2453
    },
    {
        "name": "Thiago Sena",
        "kilometers": 243.6,
        "laps": 42,
        "id": 120908
    },
    {
        "name": "Jason Corav | STE",
        "kilometers": 239.374,
        "laps": 18,
        "id": 25902
    },
    {
        "name": "Shae O'Sullivan",
        "kilometers": 239.021,
        "laps": 43,
        "id": 167800
    },
    {
        "name": "Guglielmo Filippi",
        "kilometers": 239.021,
        "laps": 43,
        "id": 18929
    },
    {
        "name": "Lukas Busack",
        "kilometers": 237.587,
        "laps": 43,
        "id": 85738
    },
    {
        "name": "Samuele Brugnara",
        "kilometers": 237.245,
        "laps": 46,
        "id": 37012
    },
    {
        "name": "David Rodrigues",
        "kilometers": 235.305,
        "laps": 42,
        "id": 86290
    },
    {
        "name": "Daniel Moore",
        "kilometers": 231.72,
        "laps": 40,
        "id": 69529
    },
    {
        "name": "Manuel Seitz",
        "kilometers": 231.132,
        "laps": 33,
        "id": 117218
    },
    {
        "name": "Patrik Mustola",
        "kilometers": 231.132,
        "laps": 33,
        "id": 10943
    },
    {
        "name": "Luca Schumacher",
        "kilometers": 231.132,
        "laps": 33,
        "id": 83357
    },
    {
        "name": "Amir Hosseini",
        "kilometers": 228.4,
        "laps": 41,
        "id": 18938
    },
    {
        "name": "Lukas Schnekenburger",
        "kilometers": 228.4,
        "laps": 41,
        "id": 2522
    },
    {
        "name": "Janik Axmann",
        "kilometers": 226.966,
        "laps": 41,
        "id": 14226
    },
    {
        "name": "Julian Voigt",
        "kilometers": 226.93,
        "laps": 44,
        "id": 80920
    },
    {
        "name": "jonathan HellRey",
        "kilometers": 226.858,
        "laps": 39,
        "id": 56967
    },
    {
        "name": "Eskil Kloppert",
        "kilometers": 226.595,
        "laps": 41,
        "id": 23101
    },
    {
        "name": "Marcello Bonaccorsi",
        "kilometers": 226.224,
        "laps": 41,
        "id": 7616
    },
    {
        "name": "Nick Kühl",
        "kilometers": 226.1,
        "laps": 50,
        "id": 57462
    },
    {
        "name": "Vinicius Patricio",
        "kilometers": 225.927,
        "laps": 39,
        "id": 147002
    },
    {
        "name": "Jan Philipp Nürnberger",
        "kilometers": 225.903,
        "laps": 41,
        "id": 29494
    },
    {
        "name": "Tim Flaig",
        "kilometers": 224.388,
        "laps": 44,
        "id": 80653
    },
    {
        "name": "Petr Jelínek",
        "kilometers": 224.128,
        "laps": 32,
        "id": 12260
    },
    {
        "name": "Sebastian Baughen",
        "kilometers": 223.302,
        "laps": 50,
        "id": 159241
    },
    {
        "name": "Marco Frey",
        "kilometers": 223.155,
        "laps": 45,
        "id": 35234
    },
    {
        "name": "Justin Stubenrauch",
        "kilometers": 222.558,
        "laps": 40,
        "id": 1229
    },
    {
        "name": "Alexander Stratmann",
        "kilometers": 221.124,
        "laps": 40,
        "id": 85227
    },
    {
        "name": "Joachim Rauch",
        "kilometers": 220.929,
        "laps": 39,
        "id": 1269
    },
    {
        "name": "Franky San",
        "kilometers": 220.929,
        "laps": 39,
        "id": 65267
    },
    {
        "name": "Alexandre Clerteaud | JB17",
        "kilometers": 220.134,
        "laps": 38,
        "id": 203518
    },
    {
        "name": "Mattia De Campo",
        "kilometers": 219.897,
        "laps": 9,
        "id": 31118
    },
    {
        "name": "Christian Chochola",
        "kilometers": 219.897,
        "laps": 9,
        "id": 730
    },
    {
        "name": "Felix Erbes",
        "kilometers": 219.897,
        "laps": 9,
        "id": 30762
    },
    {
        "name": "Marcel Schmidt",
        "kilometers": 219.897,
        "laps": 9,
        "id": 35126
    },
    {
        "name": "Daniel Cialfi | CIE",
        "kilometers": 219.897,
        "laps": 9,
        "id": 27059
    },
    {
        "name": "Kevin Boss",
        "kilometers": 219.897,
        "laps": 9,
        "id": 55355
    },
    {
        "name": "Miso Stubna",
        "kilometers": 219.897,
        "laps": 9,
        "id": 15315
    },
    {
        "name": "Mathias Stampfl",
        "kilometers": 219.897,
        "laps": 9,
        "id": 39054
    },
    {
        "name": "Andre Podehl",
        "kilometers": 219.897,
        "laps": 9,
        "id": 137905
    },
    {
        "name": "Paul Cronau",
        "kilometers": 219.897,
        "laps": 9,
        "id": 88089
    },
    {
        "name": "Valentin Rusu",
        "kilometers": 219.897,
        "laps": 9,
        "id": 25278
    },
    {
        "name": "Freddy Merckx",
        "kilometers": 219.897,
        "laps": 9,
        "id": 149033
    },
    {
        "name": "Stefan Frese",
        "kilometers": 219.897,
        "laps": 9,
        "id": 29715
    },
    {
        "name": "Benjamin Ek",
        "kilometers": 219.897,
        "laps": 9,
        "id": 33912
    },
    {
        "name": "André Castro",
        "kilometers": 219.897,
        "laps": 9,
        "id": 78976
    },
    {
        "name": "Barış Çakırel",
        "kilometers": 219.897,
        "laps": 9,
        "id": 114733
    },
    {
        "name": "Max Reimer",
        "kilometers": 217.124,
        "laps": 31,
        "id": 132540
    },
    {
        "name": "Jérémy Rux",
        "kilometers": 215.076,
        "laps": 37,
        "id": 117436
    },
    {
        "name": "David Muñoz",
        "kilometers": 215.004,
        "laps": 42,
        "id": 4794
    },
    {
        "name": "Maxime Christiaen",
        "kilometers": 213.103,
        "laps": 41,
        "id": 92842
    },
    {
        "name": "Wojtek Szymczyk",
        "kilometers": 212.076,
        "laps": 36,
        "id": 98782
    },
    {
        "name": "Luca Wieninger | RVLT",
        "kilometers": 211.582,
        "laps": 49,
        "id": 23431
    },
    {
        "name": "Dawe Neumann",
        "kilometers": 211.109,
        "laps": 39,
        "id": 100288
    },
    {
        "name": "Laurent Raullet",
        "kilometers": 210.822,
        "laps": 41,
        "id": 7510
    },
    {
        "name": "Ruben Medrano",
        "kilometers": 209.17,
        "laps": 49,
        "id": 201044
    },
    {
        "name": "Mario Russo",
        "kilometers": 208.278,
        "laps": 42,
        "id": 94070
    },
    {
        "name": "David Hughes",
        "kilometers": 207.154,
        "laps": 36,
        "id": 5775
    },
    {
        "name": "Ingo Schüttenkopf",
        "kilometers": 206.185,
        "laps": 35,
        "id": 34085
    },
    {
        "name": "Richard Liss",
        "kilometers": 203.245,
        "laps": 35,
        "id": 202944
    },
    {
        "name": "Tomek Hali",
        "kilometers": 203.167,
        "laps": 39,
        "id": 178793
    },
    {
        "name": "Karol Kruszyk",
        "kilometers": 200.165,
        "laps": 43,
        "id": 183526
    },
    {
        "name": "Fabian Wettemann",
        "kilometers": 199.308,
        "laps": 51,
        "id": 2504
    },
    {
        "name": "Dave Gallant",
        "kilometers": 198.911,
        "laps": 40,
        "id": 136433
    },
    {
        "name": "Sebastian Grote",
        "kilometers": 198.374,
        "laps": 24,
        "id": 30479
    },
    {
        "name": "Aleksi Niininen",
        "kilometers": 195.51,
        "laps": 42,
        "id": 202141
    },
    {
        "name": "Manuel Lopez Jimenez",
        "kilometers": 195.464,
        "laps": 8,
        "id": 134558
    },
    {
        "name": "Jan Lindström",
        "kilometers": 195.464,
        "laps": 8,
        "id": 164325
    },
    {
        "name": "Alexander Hufnagel",
        "kilometers": 195.464,
        "laps": 8,
        "id": 21143
    },
    {
        "name": "Marcel Schel",
        "kilometers": 195.464,
        "laps": 8,
        "id": 77520
    },
    {
        "name": "Jerry Labrecque",
        "kilometers": 195.464,
        "laps": 8,
        "id": 170097
    },
    {
        "name": "Kamil Hassan",
        "kilometers": 195.464,
        "laps": 8,
        "id": 141335
    },
    {
        "name": "Julian Schmidt",
        "kilometers": 195.464,
        "laps": 8,
        "id": 59427
    },
    {
        "name": "Roger Pan",
        "kilometers": 195.464,
        "laps": 8,
        "id": 139358
    },
    {
        "name": "Marlon Heusner",
        "kilometers": 195.464,
        "laps": 8,
        "id": 121533
    },
    {
        "name": "Sergio Mario",
        "kilometers": 195.464,
        "laps": 8,
        "id": 37534
    },
    {
        "name": "Babba Baba",
        "kilometers": 195.464,
        "laps": 8,
        "id": 178168
    },
    {
        "name": "Varga Zsolt",
        "kilometers": 195.464,
        "laps": 8,
        "id": 99336
    },
    {
        "name": "Guilherme Freitas",
        "kilometers": 195.464,
        "laps": 8,
        "id": 130265
    },
    {
        "name": "Semen Nosyk",
        "kilometers": 195.464,
        "laps": 8,
        "id": 59194
    },
    {
        "name": "Lars Mittelstädt",
        "kilometers": 194.403,
        "laps": 33,
        "id": 39943
    },
    {
        "name": "Carlos Peña",
        "kilometers": 194.072,
        "laps": 44,
        "id": 93428
    },
    {
        "name": "Felice Scivoli [FMP]",
        "kilometers": 193.225,
        "laps": 45,
        "id": 200445
    },
    {
        "name": "Tim Pedarnig",
        "kilometers": 192.451,
        "laps": 42,
        "id": 106392
    },
    {
        "name": "Colin McLeod",
        "kilometers": 191.988,
        "laps": 20,
        "id": 9131
    },
    {
        "name": "Thomas Laboche",
        "kilometers": 190.596,
        "laps": 40,
        "id": 106130
    },
    {
        "name": "Orazio Messina",
        "kilometers": 190.069,
        "laps": 37,
        "id": 84962
    },
    {
        "name": "Timo Nievelstein",
        "kilometers": 190.069,
        "laps": 37,
        "id": 2874
    },
    {
        "name": "Luca Vrenegor",
        "kilometers": 190.069,
        "laps": 37,
        "id": 2925
    },
    {
        "name": "Sven Seehase",
        "kilometers": 189.924,
        "laps": 42,
        "id": 80888
    },
    {
        "name": "Daniel Fliege",
        "kilometers": 186.944,
        "laps": 32,
        "id": 2444
    },
    {
        "name": "Ole Krauter|BMP",
        "kilometers": 186.075,
        "laps": 35,
        "id": 96001
    },
    {
        "name": "Janis Glatzel | SPR",
        "kilometers": 182.104,
        "laps": 26,
        "id": 127487
    },
    {
        "name": "Kyle Francis",
        "kilometers": 181.984,
        "laps": 31,
        "id": 8953
    },
    {
        "name": "João Albuquerque",
        "kilometers": 181.934,
        "laps": 32,
        "id": 109811
    },
    {
        "name": "Endika Andonegui",
        "kilometers": 180.88,
        "laps": 40,
        "id": 4287
    },
    {
        "name": "Marcin Adamczyk",
        "kilometers": 179.795,
        "laps": 35,
        "id": 25543
    },
    {
        "name": "Dennis Michel",
        "kilometers": 179.795,
        "laps": 35,
        "id": 68588
    },
    {
        "name": "Jesús Aguilar T",
        "kilometers": 179.795,
        "laps": 35,
        "id": 23887
    },
    {
        "name": "Valentin Legros | 2PF",
        "kilometers": 177.038,
        "laps": 41,
        "id": 41856
    },
    {
        "name": "ken tulpinck",
        "kilometers": 176.89,
        "laps": 38,
        "id": 80943
    },
    {
        "name": "Jean Strobel",
        "kilometers": 171.892,
        "laps": 28,
        "id": 63526
    },
    {
        "name": "Enrico Schwenke",
        "kilometers": 171.031,
        "laps": 7,
        "id": 35709
    },
    {
        "name": "Lucas Melo",
        "kilometers": 171.031,
        "laps": 7,
        "id": 166788
    },
    {
        "name": "Flo Ganglbauer",
        "kilometers": 171.031,
        "laps": 7,
        "id": 158106
    },
    {
        "name": "Stefano Chermaz",
        "kilometers": 171.031,
        "laps": 7,
        "id": 49939
    },
    {
        "name": "Alexandr Sorokin",
        "kilometers": 171.031,
        "laps": 7,
        "id": 143478
    },
    {
        "name": "Sebastien Cailleau",
        "kilometers": 171.031,
        "laps": 7,
        "id": 197445
    },
    {
        "name": "Roman Sharapatyi",
        "kilometers": 171.031,
        "laps": 7,
        "id": 106840
    },
    {
        "name": "Fabian Kern",
        "kilometers": 171.031,
        "laps": 7,
        "id": 8412
    },
    {
        "name": "Kresimir Franjic",
        "kilometers": 171.031,
        "laps": 7,
        "id": 49216
    },
    {
        "name": "Adamo Amedeo Quirino",
        "kilometers": 171.031,
        "laps": 7,
        "id": 125630
    },
    {
        "name": "Sergej Maksimilijan Tumara | SimHaven",
        "kilometers": 162.557,
        "laps": 27,
        "id": 49658
    },
    {
        "name": "Florin Mihai",
        "kilometers": 158.933,
        "laps": 21,
        "id": 16122
    },
    {
        "name": "Cristian manica",
        "kilometers": 158.252,
        "laps": 30,
        "id": 99953
    },
    {
        "name": "Sascha Wasner",
        "kilometers": 156.715,
        "laps": 26,
        "id": 1032
    },
    {
        "name": "Philipp Zielke",
        "kilometers": 152.412,
        "laps": 39,
        "id": 104498
    },
    {
        "name": "Filip Brejcha",
        "kilometers": 149.586,
        "laps": 28,
        "id": 7920
    },
    {
        "name": "Karlo Babić",
        "kilometers": 147.275,
        "laps": 25,
        "id": 28308
    },
    {
        "name": "Sebastian Reeh",
        "kilometers": 146.598,
        "laps": 6,
        "id": 80446
    },
    {
        "name": "Stephan Geldberg",
        "kilometers": 146.598,
        "laps": 6,
        "id": 34522
    },
    {
        "name": "Sergei Chernov",
        "kilometers": 146.598,
        "laps": 6,
        "id": 31828
    },
    {
        "name": "Fábio Teixeira",
        "kilometers": 146.598,
        "laps": 6,
        "id": 179358
    },
    {
        "name": "Vin Vanish",
        "kilometers": 146.598,
        "laps": 6,
        "id": 111640
    },
    {
        "name": "Nicolas Melotte",
        "kilometers": 146.598,
        "laps": 6,
        "id": 31192
    },
    {
        "name": "Tommi Tossavainen",
        "kilometers": 146.598,
        "laps": 6,
        "id": 131911
    },
    {
        "name": "Stefan Gußmann",
        "kilometers": 146.598,
        "laps": 6,
        "id": 104883
    },
    {
        "name": "Dominik Biskowski",
        "kilometers": 146.598,
        "laps": 6,
        "id": 173551
    },
    {
        "name": "Dustin Mitchell | CRT",
        "kilometers": 133.239,
        "laps": 23,
        "id": 132266
    },
    {
        "name": "Marcel Niemann",
        "kilometers": 127.446,
        "laps": 22,
        "id": 84062
    },
    {
        "name": "Laurence Collier",
        "kilometers": 127.446,
        "laps": 22,
        "id": 95974
    },
    {
        "name": "Józef Kaczmarczyk",
        "kilometers": 127.446,
        "laps": 22,
        "id": 115299
    },
    {
        "name": "Krystian Bogdanowicz",
        "kilometers": 127.446,
        "laps": 22,
        "id": 75728
    },
    {
        "name": "Andrew Steele",
        "kilometers": 123.975,
        "laps": 25,
        "id": 116889
    },
    {
        "name": "Tony Spence",
        "kilometers": 122.682,
        "laps": 21,
        "id": 115451
    },
    {
        "name": "Vincent Coomans",
        "kilometers": 122.682,
        "laps": 21,
        "id": 77251
    },
    {
        "name": "Tobias Zuber",
        "kilometers": 122.165,
        "laps": 5,
        "id": 88204
    },
    {
        "name": "Filipe Lage",
        "kilometers": 122.165,
        "laps": 5,
        "id": 176312
    },
    {
        "name": "Christopher Stocker|DRT",
        "kilometers": 122.165,
        "laps": 5,
        "id": 20143
    },
    {
        "name": "David Ramirez",
        "kilometers": 122.165,
        "laps": 5,
        "id": 118881
    },
    {
        "name": "Matteo Cecere",
        "kilometers": 122.165,
        "laps": 5,
        "id": 76512
    },
    {
        "name": "Daniel Velten",
        "kilometers": 122.165,
        "laps": 5,
        "id": 3321
    },
    {
        "name": "Andrey Rud",
        "kilometers": 122.165,
        "laps": 5,
        "id": 20941
    },
    {
        "name": "Marten Faust",
        "kilometers": 122.165,
        "laps": 5,
        "id": 166219
    },
    {
        "name": "Tobias Orlow",
        "kilometers": 121.653,
        "laps": 21,
        "id": 79697
    },
    {
        "name": "Alexander Reitz",
        "kilometers": 121.653,
        "laps": 21,
        "id": 93712
    },
    {
        "name": "Florian Griese",
        "kilometers": 121.653,
        "laps": 21,
        "id": 74182
    },
    {
        "name": "Jan Langer",
        "kilometers": 121.653,
        "laps": 21,
        "id": 54414
    },
    {
        "name": "Robert Schreiter",
        "kilometers": 121.653,
        "laps": 21,
        "id": 157782
    },
    {
        "name": "Paul Garnham | YT",
        "kilometers": 121.653,
        "laps": 21,
        "id": 177410
    },
    {
        "name": "Fernando Escajadllo",
        "kilometers": 121.653,
        "laps": 21,
        "id": 129691
    },
    {
        "name": "Jesus Nieto",
        "kilometers": 119.068,
        "laps": 17,
        "id": 69782
    },
    {
        "name": "Jann Jöge",
        "kilometers": 116.84,
        "laps": 20,
        "id": 10526
    },
    {
        "name": "Jan Weber [SRK]",
        "kilometers": 116.84,
        "laps": 20,
        "id": 115853
    },
    {
        "name": "Lukas Bachmaier",
        "kilometers": 116.14,
        "laps": 20,
        "id": 186204
    },
    {
        "name": "Frederic Holz",
        "kilometers": 116.14,
        "laps": 20,
        "id": 33824
    },
    {
        "name": "Sebastiano Santin",
        "kilometers": 116.14,
        "laps": 20,
        "id": 92210
    },
    {
        "name": "Samuel Mbugua",
        "kilometers": 115.86,
        "laps": 20,
        "id": 107310
    },
    {
        "name": "Dan Brais",
        "kilometers": 115.86,
        "laps": 20,
        "id": 14996
    },
    {
        "name": "Omar Escorcia",
        "kilometers": 115.86,
        "laps": 20,
        "id": 73695
    },
    {
        "name": "Mathieu Bouju",
        "kilometers": 115.86,
        "laps": 20,
        "id": 51370
    },
    {
        "name": "Iurii Vankov",
        "kilometers": 115.86,
        "laps": 20,
        "id": 90705
    },
    {
        "name": "Piotr Rusinowski",
        "kilometers": 115.86,
        "laps": 20,
        "id": 149195
    },
    {
        "name": "Christian Wimmer",
        "kilometers": 114.744,
        "laps": 27,
        "id": 111095
    },
    {
        "name": "Dimitri Fort",
        "kilometers": 113.05,
        "laps": 25,
        "id": 148122
    },
    {
        "name": "Gergő Mészöly dr.",
        "kilometers": 112.064,
        "laps": 16,
        "id": 96566
    },
    {
        "name": "Antonio Armada",
        "kilometers": 112.064,
        "laps": 16,
        "id": 30806
    },
    {
        "name": "Angelo Sabino",
        "kilometers": 112.064,
        "laps": 16,
        "id": 69140
    },
    {
        "name": "Maciej Chyrc",
        "kilometers": 111.929,
        "laps": 19,
        "id": 43195
    },
    {
        "name": "Martin Schulz",
        "kilometers": 110.998,
        "laps": 19,
        "id": 17070
    },
    {
        "name": "Robert Krlin",
        "kilometers": 110.998,
        "laps": 19,
        "id": 42002
    },
    {
        "name": "Rene Grillo",
        "kilometers": 110.998,
        "laps": 19,
        "id": 77246
    },
    {
        "name": "Markus Rechs",
        "kilometers": 110.998,
        "laps": 19,
        "id": 54571
    },
    {
        "name": "Francesco Buffa",
        "kilometers": 110.998,
        "laps": 19,
        "id": 127415
    },
    {
        "name": "Marco Pollara",
        "kilometers": 110.998,
        "laps": 19,
        "id": 98279
    },
    {
        "name": "Loïc Kocher",
        "kilometers": 110.998,
        "laps": 19,
        "id": 121639
    },
    {
        "name": "Artem Bieliavtsev",
        "kilometers": 110.333,
        "laps": 19,
        "id": 42038
    },
    {
        "name": "Svyatoslav Gridin",
        "kilometers": 110.067,
        "laps": 19,
        "id": 108816
    },
    {
        "name": "Jose Cuellar",
        "kilometers": 110.067,
        "laps": 19,
        "id": 14903
    },
    {
        "name": "Franck ASynn",
        "kilometers": 110.067,
        "laps": 19,
        "id": 117491
    },
    {
        "name": "Fran Lanza",
        "kilometers": 110.067,
        "laps": 19,
        "id": 160831
    },
    {
        "name": "Max Bürmann",
        "kilometers": 109.098,
        "laps": 22,
        "id": 6506
    },
    {
        "name": "Hector Cabrera",
        "kilometers": 109.098,
        "laps": 22,
        "id": 133390
    },
    {
        "name": "Laurent Von Wiki",
        "kilometers": 109.098,
        "laps": 22,
        "id": 51163
    },
    {
        "name": "Jose_Luis Paz",
        "kilometers": 108.528,
        "laps": 24,
        "id": 40993
    },
    {
        "name": "Christian Brand",
        "kilometers": 108.528,
        "laps": 24,
        "id": 4623
    },
    {
        "name": "Felix Worm",
        "kilometers": 108.528,
        "laps": 24,
        "id": 125902
    },
    {
        "name": "Vladislav Kalinin",
        "kilometers": 108.528,
        "laps": 24,
        "id": 79643
    },
    {
        "name": "Nico Rumpel",
        "kilometers": 108.528,
        "laps": 24,
        "id": 161785
    },
    {
        "name": "Roberto Campano",
        "kilometers": 108.528,
        "laps": 24,
        "id": 83392
    },
    {
        "name": "Tobias Steiner",
        "kilometers": 108.528,
        "laps": 24,
        "id": 107051
    },
    {
        "name": "Razvan Onea",
        "kilometers": 107.95,
        "laps": 25,
        "id": 36532
    },
    {
        "name": "Carl Hightower",
        "kilometers": 107.95,
        "laps": 25,
        "id": 49331
    },
    {
        "name": "Andi Päschke",
        "kilometers": 106.038,
        "laps": 18,
        "id": 15416
    },
    {
        "name": "Michael Busch",
        "kilometers": 106.038,
        "laps": 18,
        "id": 49852
    },
    {
        "name": "Chris Schinke",
        "kilometers": 106.038,
        "laps": 18,
        "id": 82952
    },
    {
        "name": "Michael Neeb",
        "kilometers": 106.038,
        "laps": 18,
        "id": 128799
    },
    {
        "name": "Daniel Ferrer",
        "kilometers": 106.038,
        "laps": 18,
        "id": 62555
    },
    {
        "name": "Robin Fauskanger",
        "kilometers": 106.038,
        "laps": 18,
        "id": 140860
    },
    {
        "name": "Oscar Gallardo Garcia",
        "kilometers": 106.038,
        "laps": 18,
        "id": 106335
    },
    {
        "name": "Indio zézé",
        "kilometers": 106.038,
        "laps": 18,
        "id": 78691
    },
    {
        "name": "Marcel Kollreider",
        "kilometers": 105.156,
        "laps": 18,
        "id": 48147
    },
    {
        "name": "Mircea Blendea",
        "kilometers": 105.06,
        "laps": 15,
        "id": 87092
    },
    {
        "name": "Marcel Tamo",
        "kilometers": 104.526,
        "laps": 18,
        "id": 24233
    },
    {
        "name": "Florian Krohn",
        "kilometers": 104.286,
        "laps": 26,
        "id": 88587
    },
    {
        "name": "Mike Maier",
        "kilometers": 104.274,
        "laps": 18,
        "id": 104336
    },
    {
        "name": "Aleksy Palenta",
        "kilometers": 104.274,
        "laps": 18,
        "id": 159747
    },
    {
        "name": "Steven Hoder",
        "kilometers": 104.274,
        "laps": 18,
        "id": 679
    },
    {
        "name": "Stephan Tausche",
        "kilometers": 104.139,
        "laps": 21,
        "id": 4974
    },
    {
        "name": "Oliver Hartel",
        "kilometers": 104.006,
        "laps": 23,
        "id": 67931
    },
    {
        "name": "Alberto Espinosa",
        "kilometers": 104.006,
        "laps": 23,
        "id": 81458
    },
    {
        "name": "Kevin Scriba | PWRT",
        "kilometers": 104.006,
        "laps": 23,
        "id": 129874
    },
    {
        "name": "Jonas Widmann",
        "kilometers": 104.006,
        "laps": 23,
        "id": 133522
    },
    {
        "name": "Antoni Lenart",
        "kilometers": 104.006,
        "laps": 23,
        "id": 198255
    },
    {
        "name": "Laurence Hardwick",
        "kilometers": 103.632,
        "laps": 24,
        "id": 65650
    },
    {
        "name": "Yves Heim | DRT",
        "kilometers": 103.632,
        "laps": 24,
        "id": 86
    },
    {
        "name": "Jan Bucher",
        "kilometers": 103.632,
        "laps": 24,
        "id": 112257
    },
    {
        "name": "George Hardwick",
        "kilometers": 103.632,
        "laps": 24,
        "id": 47637
    },
    {
        "name": "Josef Keufl",
        "kilometers": 103.632,
        "laps": 24,
        "id": 12645
    },
    {
        "name": "Jorge Pousa",
        "kilometers": 103.632,
        "laps": 24,
        "id": 36184
    },
    {
        "name": "Feliks Czef",
        "kilometers": 103.632,
        "laps": 24,
        "id": 20421
    },
    {
        "name": "Teemu Karppinen",
        "kilometers": 103.632,
        "laps": 24,
        "id": 5913
    },
    {
        "name": "Toni Richter | SIR",
        "kilometers": 103.632,
        "laps": 24,
        "id": 6482
    },
    {
        "name": "Andrew Ivashkin",
        "kilometers": 103.632,
        "laps": 24,
        "id": 42687
    },
    {
        "name": "Daniel Lavrov",
        "kilometers": 103.632,
        "laps": 24,
        "id": 108830
    },
    {
        "name": "Philipp Petermann",
        "kilometers": 103.632,
        "laps": 24,
        "id": 32178
    },
    {
        "name": "Weber Friedrich",
        "kilometers": 102.41,
        "laps": 22,
        "id": 3496
    },
    {
        "name": "Michael Lyons",
        "kilometers": 100.147,
        "laps": 17,
        "id": 43039
    },
    {
        "name": "Mark Ekins",
        "kilometers": 100.147,
        "laps": 17,
        "id": 66498
    },
    {
        "name": "Borja Ares",
        "kilometers": 100.147,
        "laps": 17,
        "id": 88955
    },
    {
        "name": "Victor Roosloot",
        "kilometers": 100.147,
        "laps": 17,
        "id": 78733
    },
    {
        "name": "Guiller Canosa",
        "kilometers": 100.147,
        "laps": 17,
        "id": 35415
    },
    {
        "name": "Manu Bello",
        "kilometers": 100.147,
        "laps": 17,
        "id": 108087
    },
    {
        "name": "Krzysztof Slusarski",
        "kilometers": 99.484,
        "laps": 22,
        "id": 22225
    },
    {
        "name": "Andrei Rudei",
        "kilometers": 99.314,
        "laps": 23,
        "id": 17903
    },
    {
        "name": "Kieran Prendergast",
        "kilometers": 99.314,
        "laps": 23,
        "id": 10569
    },
    {
        "name": "Vinicius Neto",
        "kilometers": 99.314,
        "laps": 23,
        "id": 110514
    },
    {
        "name": "Drew Stanley",
        "kilometers": 99.314,
        "laps": 23,
        "id": 42855
    },
    {
        "name": "Rares Romonti | TSC",
        "kilometers": 99.314,
        "laps": 23,
        "id": 85432
    },
    {
        "name": "Rares Oprea | RLR",
        "kilometers": 99.314,
        "laps": 23,
        "id": 23563
    },
    {
        "name": "Diogo Carvalho",
        "kilometers": 99.314,
        "laps": 23,
        "id": 18672
    },
    {
        "name": "Jeton Laminat",
        "kilometers": 99.314,
        "laps": 23,
        "id": 112568
    },
    {
        "name": "Carlos Otero",
        "kilometers": 99.18,
        "laps": 20,
        "id": 108221
    },
    {
        "name": "Bob Red",
        "kilometers": 98.907,
        "laps": 21,
        "id": 16103
    },
    {
        "name": "Florian Licht",
        "kilometers": 98.481,
        "laps": 17,
        "id": 61890
    },
    {
        "name": "Tobias Laugenberg | CRT",
        "kilometers": 98.481,
        "laps": 17,
        "id": 200605
    },
    {
        "name": "Josef Mikulík",
        "kilometers": 98.481,
        "laps": 17,
        "id": 47864
    },
    {
        "name": "Christian Schepers",
        "kilometers": 98.481,
        "laps": 17,
        "id": 104862
    },
    {
        "name": "Olli Moss",
        "kilometers": 98.481,
        "laps": 17,
        "id": 27292
    },
    {
        "name": "Konstantinos Angel",
        "kilometers": 98.478,
        "laps": 18,
        "id": 108612
    },
    {
        "name": "Ted Ber",
        "kilometers": 98.478,
        "laps": 18,
        "id": 111879
    },
    {
        "name": "Ian Tuckey",
        "kilometers": 98.056,
        "laps": 14,
        "id": 137619
    },
    {
        "name": "Phigo One",
        "kilometers": 98.056,
        "laps": 14,
        "id": 2581
    },
    {
        "name": "Tone Starr | KHR",
        "kilometers": 97.755,
        "laps": 21,
        "id": 28788
    },
    {
        "name": "Pawel Moltschanow-Hefele",
        "kilometers": 97.755,
        "laps": 21,
        "id": 201421
    },
    {
        "name": "Koray Ayyıldız",
        "kilometers": 97.755,
        "laps": 21,
        "id": 202252
    },
    {
        "name": "Nicholas Caputo",
        "kilometers": 97.732,
        "laps": 4,
        "id": 72817
    },
    {
        "name": "Mark Gaio",
        "kilometers": 97.732,
        "laps": 4,
        "id": 37738
    },
    {
        "name": "Andreas Vogt",
        "kilometers": 97.732,
        "laps": 4,
        "id": 16668
    },
    {
        "name": "Axel Mohy",
        "kilometers": 97.732,
        "laps": 4,
        "id": 139518
    },
    {
        "name": "Arshad Arshu",
        "kilometers": 97.732,
        "laps": 4,
        "id": 158532
    },
    {
        "name": "Maximilian Niederl",
        "kilometers": 97.732,
        "laps": 4,
        "id": 64154
    },
    {
        "name": "Stefan Lemke",
        "kilometers": 94.996,
        "laps": 22,
        "id": 1126
    },
    {
        "name": "Manfred Steiner | SIR",
        "kilometers": 94.996,
        "laps": 22,
        "id": 6716
    },
    {
        "name": "Matic Zajc",
        "kilometers": 94.996,
        "laps": 22,
        "id": 132006
    },
    {
        "name": "Alex Freeman",
        "kilometers": 94.996,
        "laps": 22,
        "id": 102869
    },
    {
        "name": "Tamas Zelfel | LMLM",
        "kilometers": 94.996,
        "laps": 22,
        "id": 26844
    },
    {
        "name": "Thales Mendes",
        "kilometers": 94.996,
        "laps": 22,
        "id": 97672
    },
    {
        "name": "Vlad Godea",
        "kilometers": 94.996,
        "laps": 22,
        "id": 87520
    },
    {
        "name": "Neil Winter",
        "kilometers": 94.996,
        "laps": 22,
        "id": 20600
    },
    {
        "name": "Mika Gerberding (NOR)",
        "kilometers": 94.996,
        "laps": 22,
        "id": 85643
    },
    {
        "name": "Kevin Panten",
        "kilometers": 94.996,
        "laps": 22,
        "id": 143156
    },
    {
        "name": "YAGO CARDARELLI",
        "kilometers": 94.996,
        "laps": 22,
        "id": 61030
    },
    {
        "name": "Willians Borges",
        "kilometers": 94.996,
        "laps": 22,
        "id": 114622
    },
    {
        "name": "Mateo Romero",
        "kilometers": 94.996,
        "laps": 22,
        "id": 60859
    },
    {
        "name": "Philipp Brunner",
        "kilometers": 94.962,
        "laps": 21,
        "id": 47932
    },
    {
        "name": "Michael Gammelgaard",
        "kilometers": 94.962,
        "laps": 21,
        "id": 123670
    },
    {
        "name": "Dennis Tabor",
        "kilometers": 94.962,
        "laps": 21,
        "id": 122062
    },
    {
        "name": "Dmitry Shtonda",
        "kilometers": 94.962,
        "laps": 21,
        "id": 109715
    },
    {
        "name": "Mikel Arza",
        "kilometers": 94.962,
        "laps": 21,
        "id": 113368
    },
    {
        "name": "Nikolai Oleynikov",
        "kilometers": 94.962,
        "laps": 21,
        "id": 148057
    },
    {
        "name": "Antonio Galván",
        "kilometers": 94.962,
        "laps": 21,
        "id": 106137
    },
    {
        "name": "Les Grossman",
        "kilometers": 94.256,
        "laps": 16,
        "id": 4407
    },
    {
        "name": "Nikolas Richter",
        "kilometers": 94.256,
        "laps": 16,
        "id": 48609
    },
    {
        "name": "Gabriel Abad",
        "kilometers": 94.256,
        "laps": 16,
        "id": 48732
    },
    {
        "name": "Alberto Belloso",
        "kilometers": 94.221,
        "laps": 19,
        "id": 120763
    },
    {
        "name": "Sergio Prados",
        "kilometers": 93.792,
        "laps": 24,
        "id": 140514
    },
    {
        "name": "Luca Baragiotta",
        "kilometers": 93.792,
        "laps": 24,
        "id": 110106
    },
    {
        "name": "Aaron Tiggy | SIR",
        "kilometers": 93.472,
        "laps": 16,
        "id": 3478
    },
    {
        "name": "Darrell Abbott",
        "kilometers": 93.472,
        "laps": 16,
        "id": 90291
    },
    {
        "name": "Seb Diesel | JB17",
        "kilometers": 93.1,
        "laps": 20,
        "id": 140154
    },
    {
        "name": "James Upward",
        "kilometers": 93.1,
        "laps": 20,
        "id": 211884
    },
    {
        "name": "Lanor Rahim",
        "kilometers": 92.688,
        "laps": 16,
        "id": 33442
    },
    {
        "name": "Shiro Shiro",
        "kilometers": 92.688,
        "laps": 16,
        "id": 96468
    },
    {
        "name": "Florian Löchner",
        "kilometers": 90.678,
        "laps": 21,
        "id": 121667
    },
    {
        "name": "Stefan Prinz",
        "kilometers": 90.678,
        "laps": 21,
        "id": 95452
    },
    {
        "name": "Robin Katzlberger",
        "kilometers": 90.678,
        "laps": 21,
        "id": 46016
    },
    {
        "name": "Filip Jarząbek",
        "kilometers": 90.44,
        "laps": 20,
        "id": 28961
    },
    {
        "name": "Fran Fernandez",
        "kilometers": 90.44,
        "laps": 20,
        "id": 50804
    },
    {
        "name": "Pjer Reithmeier",
        "kilometers": 90.44,
        "laps": 20,
        "id": 74541
    },
    {
        "name": "Adrian Valera",
        "kilometers": 90.44,
        "laps": 20,
        "id": 42340
    },
    {
        "name": "DECLAN SMITH",
        "kilometers": 90.44,
        "laps": 20,
        "id": 69675
    },
    {
        "name": "Alejandro Valera",
        "kilometers": 90.44,
        "laps": 20,
        "id": 45239
    },
    {
        "name": "Bruno Miguel Silva",
        "kilometers": 90.44,
        "laps": 20,
        "id": 14074
    },
    {
        "name": "Matthieu Burg",
        "kilometers": 90.44,
        "laps": 20,
        "id": 168234
    },
    {
        "name": "Antonio Tolstoj",
        "kilometers": 89.884,
        "laps": 23,
        "id": 104535
    },
    {
        "name": "Mario Gracia",
        "kilometers": 88.445,
        "laps": 19,
        "id": 108576
    },
    {
        "name": "Dieter Benger",
        "kilometers": 88.365,
        "laps": 15,
        "id": 105058
    },
    {
        "name": "Aleksandrs Kazaks",
        "kilometers": 88.365,
        "laps": 15,
        "id": 93317
    },
    {
        "name": "Allen Drake Cruz",
        "kilometers": 87.63,
        "laps": 15,
        "id": 32093
    },
    {
        "name": "Vojtěch Neuwirth",
        "kilometers": 87.63,
        "laps": 15,
        "id": 2761
    },
    {
        "name": "Ross chapman",
        "kilometers": 86.895,
        "laps": 15,
        "id": 153690
    },
    {
        "name": "Aulia Wafiq Prianata",
        "kilometers": 85.918,
        "laps": 19,
        "id": 37297
    },
    {
        "name": "Stuart Jameson",
        "kilometers": 85.918,
        "laps": 19,
        "id": 87783
    },
    {
        "name": "Caio Vinicius Santos",
        "kilometers": 85.918,
        "laps": 19,
        "id": 47517
    },
    {
        "name": "regis kaya",
        "kilometers": 84.231,
        "laps": 21,
        "id": 138773
    },
    {
        "name": "Marcin Gierosz",
        "kilometers": 83.79,
        "laps": 18,
        "id": 121383
    },
    {
        "name": "Maxime Philippin | SRT",
        "kilometers": 83.79,
        "laps": 18,
        "id": 77054
    },
    {
        "name": "Raul Gallego",
        "kilometers": 83.79,
        "laps": 18,
        "id": 99163
    },
    {
        "name": "Armitage Shanks® | BR",
        "kilometers": 82.065,
        "laps": 15,
        "id": 85892
    },
    {
        "name": "Finn Zimball",
        "kilometers": 81.788,
        "laps": 14,
        "id": 36752
    },
    {
        "name": "Stefan Vimozahr | PSR",
        "kilometers": 81.788,
        "laps": 14,
        "id": 2344
    },
    {
        "name": "Lasse Strege",
        "kilometers": 81.788,
        "laps": 14,
        "id": 36756
    },
    {
        "name": "Andrew McWilliam",
        "kilometers": 81.788,
        "laps": 14,
        "id": 45250
    },
    {
        "name": "Axel Ramounet",
        "kilometers": 81.788,
        "laps": 14,
        "id": 63960
    },
    {
        "name": "Christophe Verstrepen",
        "kilometers": 81.788,
        "laps": 14,
        "id": 12771
    },
    {
        "name": "Kaj Paw",
        "kilometers": 81.788,
        "laps": 14,
        "id": 79530
    },
    {
        "name": "Vladislav Kolosov",
        "kilometers": 81.788,
        "laps": 14,
        "id": 17918
    },
    {
        "name": "Christopher Dellmuth",
        "kilometers": 81.788,
        "laps": 14,
        "id": 131104
    },
    {
        "name": "Yannick Meister",
        "kilometers": 81.788,
        "laps": 14,
        "id": 26993
    },
    {
        "name": "David Naskidashvili",
        "kilometers": 81.243,
        "laps": 17,
        "id": 98028
    },
    {
        "name": "Tinko van der Velde",
        "kilometers": 81.243,
        "laps": 17,
        "id": 5041
    },
    {
        "name": "Nikita Orazaev",
        "kilometers": 81.243,
        "laps": 17,
        "id": 83749
    },
    {
        "name": "Valentin Alibert | SRT",
        "kilometers": 81.102,
        "laps": 14,
        "id": 136042
    },
    {
        "name": "Flo Meyer",
        "kilometers": 81.102,
        "laps": 14,
        "id": 81926
    },
    {
        "name": "javier dosmontes",
        "kilometers": 81.102,
        "laps": 14,
        "id": 140507
    },
    {
        "name": "Nils Naujoks",
        "kilometers": 80.769,
        "laps": 13,
        "id": 2661
    },
    {
        "name": "Alexandre Lê",
        "kilometers": 80.769,
        "laps": 13,
        "id": 35659
    },
    {
        "name": "David Pertile",
        "kilometers": 80.769,
        "laps": 13,
        "id": 4976
    },
    {
        "name": "Edoardo Ruggiero",
        "kilometers": 80.769,
        "laps": 13,
        "id": 83928
    },
    {
        "name": "Marcello Sindaco",
        "kilometers": 80.769,
        "laps": 13,
        "id": 146725
    },
    {
        "name": "Luca Schuhbeck",
        "kilometers": 80.769,
        "laps": 13,
        "id": 54518
    },
    {
        "name": "Eduardo Castro",
        "kilometers": 77.044,
        "laps": 11,
        "id": 84783
    },
    {
        "name": "Jan Drechsler",
        "kilometers": 76.464,
        "laps": 16,
        "id": 26055
    },
    {
        "name": "Max Florenz",
        "kilometers": 76.464,
        "laps": 16,
        "id": 11888
    },
    {
        "name": "Ben McConnell",
        "kilometers": 76.464,
        "laps": 16,
        "id": 2339
    },
    {
        "name": "Noah Sully Vazquez Rodriguez",
        "kilometers": 76.464,
        "laps": 16,
        "id": 31919
    },
    {
        "name": "Mikhail Bykov",
        "kilometers": 76.464,
        "laps": 16,
        "id": 18979
    },
    {
        "name": "Andrii Pozdniakov",
        "kilometers": 76.464,
        "laps": 16,
        "id": 36921
    },
    {
        "name": "Christian De Zan",
        "kilometers": 76.464,
        "laps": 16,
        "id": 29017
    },
    {
        "name": "Remi Papin",
        "kilometers": 76.464,
        "laps": 16,
        "id": 2820
    },
    {
        "name": "Alex Sargsyan",
        "kilometers": 76.464,
        "laps": 16,
        "id": 170988
    },
    {
        "name": "Kevin Taddei",
        "kilometers": 76.464,
        "laps": 16,
        "id": 40102
    },
    {
        "name": "Pavlo Polovchuk",
        "kilometers": 75.946,
        "laps": 13,
        "id": 41517
    },
    {
        "name": "Grantas Kareckas",
        "kilometers": 75.946,
        "laps": 13,
        "id": 8357
    },
    {
        "name": "Alex Franganillo",
        "kilometers": 75.946,
        "laps": 13,
        "id": 27799
    },
    {
        "name": "Leonid Makovkin",
        "kilometers": 75.946,
        "laps": 13,
        "id": 20125
    },
    {
        "name": "Flo showingthings",
        "kilometers": 75.946,
        "laps": 13,
        "id": 87102
    },
    {
        "name": "Fabrizio Campanella",
        "kilometers": 74.556,
        "laps": 12,
        "id": 25889
    },
    {
        "name": "Jonathan Halama",
        "kilometers": 74.556,
        "laps": 12,
        "id": 117375
    },
    {
        "name": "Dávid Kozma | LMLM",
        "kilometers": 73.406,
        "laps": 17,
        "id": 27072
    },
    {
        "name": "Jurien Prins",
        "kilometers": 73.406,
        "laps": 17,
        "id": 23673
    },
    {
        "name": "Yanis Ducros",
        "kilometers": 73.299,
        "laps": 3,
        "id": 83964
    },
    {
        "name": "Vincent Hoffman",
        "kilometers": 73.299,
        "laps": 3,
        "id": 68550
    },
    {
        "name": "Andrey Chasnikov",
        "kilometers": 73.299,
        "laps": 3,
        "id": 22376
    },
    {
        "name": "Ivan Vedernikov",
        "kilometers": 73.299,
        "laps": 3,
        "id": 77494
    },
    {
        "name": "Mattéo Naldi",
        "kilometers": 71.685,
        "laps": 15,
        "id": 59677
    },
    {
        "name": "Tom Gonzalez",
        "kilometers": 71.685,
        "laps": 15,
        "id": 7199
    },
    {
        "name": "John van der Pers",
        "kilometers": 71.123,
        "laps": 13,
        "id": 3229
    },
    {
        "name": "GASPAR FERNANDO",
        "kilometers": 70.692,
        "laps": 12,
        "id": 89707
    },
    {
        "name": "Mike Schiller",
        "kilometers": 69.516,
        "laps": 12,
        "id": 86253
    },
    {
        "name": "Linus Lucaßen",
        "kilometers": 68.343,
        "laps": 11,
        "id": 707
    },
    {
        "name": "Rafael Santos",
        "kilometers": 64.77,
        "laps": 15,
        "id": 46360
    },
    {
        "name": "Antonello Pinna",
        "kilometers": 63.723,
        "laps": 11,
        "id": 46635
    },
    {
        "name": "Paul Lobmaier",
        "kilometers": 62.13,
        "laps": 10,
        "id": 14494
    },
    {
        "name": "Juan Marti",
        "kilometers": 54.264,
        "laps": 12,
        "id": 109146
    },
    {
        "name": "Reinhold Van Truedingen",
        "kilometers": 48.866,
        "laps": 2,
        "id": 82004
    },
    {
        "name": "Lukas Krawczak",
        "kilometers": 48.866,
        "laps": 2,
        "id": 87019
    },
    {
        "name": "Vincenzo Maggio",
        "kilometers": 48.866,
        "laps": 2,
        "id": 59061
    },
    {
        "name": "Marcel RISt",
        "kilometers": 48.866,
        "laps": 2,
        "id": 151013
    },
    {
        "name": "Bram De Poorter",
        "kilometers": 48.866,
        "laps": 2,
        "id": 162254
    },
    {
        "name": "Czech Driver",
        "kilometers": 31.264,
        "laps": 8,
        "id": 158855
    },
    {
        "name": "Sebastian Zuehlsdorf",
        "kilometers": 27.93,
        "laps": 6,
        "id": 7503
    },
    {
        "name": "Szymon Kubacki",
        "kilometers": 24.433,
        "laps": 1,
        "id": 2804
    },
    {
        "name": "Anton Kogans",
        "kilometers": 24.433,
        "laps": 1,
        "id": 104062
    },
    {
        "name": "Nino Burek",
        "kilometers": 24.433,
        "laps": 1,
        "id": 11323
    },
    {
        "name": "Linus Saxarra",
        "kilometers": 24.433,
        "laps": 1,
        "id": 42216
    },
    {
        "name": "Andre Louia",
        "kilometers": 24.433,
        "laps": 1,
        "id": 139671
    },
    {
        "name": "Tim Noel",
        "kilometers": 24.433,
        "laps": 1,
        "id": 5302
    },
    {
        "name": "Roman Lugina",
        "kilometers": 24.433,
        "laps": 1,
        "id": 97570
    },
    {
        "name": "Antonio Heineberg | HS",
        "kilometers": 17.379,
        "laps": 3,
        "id": 192606
    },
    {
        "name": "Thomas Ducamp",
        "kilometers": 4.522,
        "laps": 1,
        "id": 145582
    }
]