[
    {
        "name": "Kergő Giss",
        "kilometers": 2543.149,
        "laps": 157,
        "id": 196902
    },
    {
        "name": "Julien Lombric | JB17",
        "kilometers": 1450.338,
        "laps": 114,
        "id": 7541
    },
    {
        "name": "Pascal Muders",
        "kilometers": 904.112,
        "laps": 176,
        "id": 129097
    },
    {
        "name": "Heiko Krämer",
        "kilometers": 757.423,
        "laps": 31,
        "id": 6290
    },
    {
        "name": "Nikolaii Polyakov",
        "kilometers": 705.151,
        "laps": 58,
        "id": 25698
    },
    {
        "name": "Davide Nativo",
        "kilometers": 549.659,
        "laps": 107,
        "id": 42573
    },
    {
        "name": "Tobias Gebel",
        "kilometers": 441.782,
        "laps": 86,
        "id": 47190
    },
    {
        "name": "Coekie Nova",
        "kilometers": 424.287,
        "laps": 78,
        "id": 13445
    },
    {
        "name": "Nick Kühl",
        "kilometers": 421.234,
        "laps": 82,
        "id": 57462
    },
    {
        "name": "Romain Chemartin | DSR",
        "kilometers": 416.097,
        "laps": 81,
        "id": 153832
    },
    {
        "name": "Milán Kiss",
        "kilometers": 410.96,
        "laps": 80,
        "id": 103683
    },
    {
        "name": "Kobali Milan",
        "kilometers": 400.686,
        "laps": 78,
        "id": 72986
    },
    {
        "name": "Arkadiusz Ruciński",
        "kilometers": 395.549,
        "laps": 77,
        "id": 62615
    },
    {
        "name": "Ashley Forrester | YT 4ZYY",
        "kilometers": 390.928,
        "laps": 16,
        "id": 96080
    },
    {
        "name": "Heinz Ward-Renntner",
        "kilometers": 376.545,
        "laps": 65,
        "id": 29174
    },
    {
        "name": "Jürgen Nietgen",
        "kilometers": 366.495,
        "laps": 15,
        "id": 170540
    },
    {
        "name": "Lukas Bachmaier",
        "kilometers": 349.316,
        "laps": 68,
        "id": 186204
    },
    {
        "name": "Adam Broz",
        "kilometers": 345.851,
        "laps": 74,
        "id": 125479
    },
    {
        "name": "Csaba Polgár",
        "kilometers": 333.905,
        "laps": 65,
        "id": 71733
    },
    {
        "name": "Ruben Jimenez",
        "kilometers": 328.768,
        "laps": 64,
        "id": 94844
    },
    {
        "name": "Niko Pennanen",
        "kilometers": 311.066,
        "laps": 54,
        "id": 13510
    },
    {
        "name": "Ben Ries",
        "kilometers": 308.22,
        "laps": 60,
        "id": 38087
    },
    {
        "name": "Barış Çakırel",
        "kilometers": 301.685,
        "laps": 23,
        "id": 114733
    },
    {
        "name": "Dylan Ghisgand | JB17",
        "kilometers": 266.66,
        "laps": 64,
        "id": 144081
    },
    {
        "name": "Nicolás Marín",
        "kilometers": 262.458,
        "laps": 26,
        "id": 27723
    },
    {
        "name": "Alessio Anzalone",
        "kilometers": 257.725,
        "laps": 49,
        "id": 55566
    },
    {
        "name": "Darius Milesan",
        "kilometers": 256.85,
        "laps": 50,
        "id": 192733
    },
    {
        "name": "Yohan Beaune",
        "kilometers": 253.503,
        "laps": 47,
        "id": 87686
    },
    {
        "name": "Patrick Bachmaier",
        "kilometers": 251.713,
        "laps": 49,
        "id": 165519
    },
    {
        "name": "Jens Plüddemann",
        "kilometers": 251.713,
        "laps": 49,
        "id": 214298
    },
    {
        "name": "Lionel Humbert",
        "kilometers": 246.576,
        "laps": 48,
        "id": 162377
    },
    {
        "name": "Corentin LALY",
        "kilometers": 226.028,
        "laps": 44,
        "id": 215936
    },
    {
        "name": "Tomas Vidnes",
        "kilometers": 219.897,
        "laps": 9,
        "id": 41825
    },
    {
        "name": "Sergei Chernov",
        "kilometers": 219.897,
        "laps": 9,
        "id": 31828
    },
    {
        "name": "Elvis Dautbasic",
        "kilometers": 219.897,
        "laps": 9,
        "id": 23143
    },
    {
        "name": "chris Rayner",
        "kilometers": 218.95,
        "laps": 22,
        "id": 147257
    },
    {
        "name": "Artur Kokoszka",
        "kilometers": 195.206,
        "laps": 38,
        "id": 181580
    },
    {
        "name": "Wesley Lawrence",
        "kilometers": 189.108,
        "laps": 27,
        "id": 159732
    },
    {
        "name": "Stefan Kosubek",
        "kilometers": 179.795,
        "laps": 35,
        "id": 77639
    },
    {
        "name": "Tieums Braaap",
        "kilometers": 179.795,
        "laps": 35,
        "id": 218110
    },
    {
        "name": "Yasin Atik",
        "kilometers": 179.795,
        "laps": 35,
        "id": 108171
    },
    {
        "name": "Quique Díez",
        "kilometers": 174.658,
        "laps": 34,
        "id": 159264
    },
    {
        "name": "Georg Scheiblhuber",
        "kilometers": 171.031,
        "laps": 7,
        "id": 176408
    },
    {
        "name": "willy Mercier",
        "kilometers": 171.031,
        "laps": 7,
        "id": 98459
    },
    {
        "name": "Daniel Prevratil",
        "kilometers": 171.031,
        "laps": 7,
        "id": 77853
    },
    {
        "name": "Michał Pochopień",
        "kilometers": 169.521,
        "laps": 33,
        "id": 41771
    },
    {
        "name": "Luiz Tavares",
        "kilometers": 164.384,
        "laps": 32,
        "id": 104776
    },
    {
        "name": "Jesús Estudillo",
        "kilometers": 163.647,
        "laps": 33,
        "id": 144381
    },
    {
        "name": "Joshua Cunin",
        "kilometers": 159.247,
        "laps": 31,
        "id": 44494
    },
    {
        "name": "Eetu Virta",
        "kilometers": 154.11,
        "laps": 30,
        "id": 169351
    },
    {
        "name": "Mesut Aydin | STR",
        "kilometers": 154.11,
        "laps": 30,
        "id": 96726
    },
    {
        "name": "Manu Macédo",
        "kilometers": 154.11,
        "laps": 30,
        "id": 212748
    },
    {
        "name": "Michal Arminski",
        "kilometers": 154.11,
        "laps": 30,
        "id": 127055
    },
    {
        "name": "Wagner Bocchi",
        "kilometers": 152.333,
        "laps": 32,
        "id": 54398
    },
    {
        "name": "Benjamin Sayou Breuil",
        "kilometers": 150.982,
        "laps": 26,
        "id": 82897
    },
    {
        "name": "Sergio Mario",
        "kilometers": 146.598,
        "laps": 6,
        "id": 37534
    },
    {
        "name": "Philipp Meyer",
        "kilometers": 146.598,
        "laps": 6,
        "id": 173973
    },
    {
        "name": "Larisa Kay",
        "kilometers": 146.598,
        "laps": 6,
        "id": 192091
    },
    {
        "name": "Bjarne Godt",
        "kilometers": 143.836,
        "laps": 28,
        "id": 8219
    },
    {
        "name": "Ernesto Nigro",
        "kilometers": 138.699,
        "laps": 27,
        "id": 90580
    },
    {
        "name": "Pepe Rodriguez",
        "kilometers": 138.699,
        "laps": 27,
        "id": 69833
    },
    {
        "name": "Dennis Nery",
        "kilometers": 138.699,
        "laps": 27,
        "id": 177740
    },
    {
        "name": "Mehdi EL OUALJA",
        "kilometers": 138.699,
        "laps": 27,
        "id": 159481
    },
    {
        "name": "YURI FELIX",
        "kilometers": 128.425,
        "laps": 25,
        "id": 136423
    },
    {
        "name": "Chris Su",
        "kilometers": 128.425,
        "laps": 25,
        "id": 184351
    },
    {
        "name": "Flavio Rangel",
        "kilometers": 126.823,
        "laps": 25,
        "id": 29560
    },
    {
        "name": "Simon Goelner",
        "kilometers": 122.165,
        "laps": 5,
        "id": 136972
    },
    {
        "name": "Alexander Jansen",
        "kilometers": 122.165,
        "laps": 5,
        "id": 171651
    },
    {
        "name": "cristian de la torre perez",
        "kilometers": 119.235,
        "laps": 25,
        "id": 27672
    },
    {
        "name": "Aly Bart",
        "kilometers": 116.14,
        "laps": 20,
        "id": 39057
    },
    {
        "name": "Jordi Navarro |ATOTDRAP",
        "kilometers": 114.057,
        "laps": 23,
        "id": 82670
    },
    {
        "name": "Francesco Severini",
        "kilometers": 110.067,
        "laps": 19,
        "id": 69023
    },
    {
        "name": "Jesús Dominguez",
        "kilometers": 110.067,
        "laps": 19,
        "id": 160384
    },
    {
        "name": "Connor Wundes",
        "kilometers": 109.42,
        "laps": 20,
        "id": 79901
    },
    {
        "name": "Christian Lutz",
        "kilometers": 109.42,
        "laps": 20,
        "id": 45946
    },
    {
        "name": "Stefan Abt | FSR",
        "kilometers": 107.95,
        "laps": 25,
        "id": 46913
    },
    {
        "name": "David Anzalone",
        "kilometers": 107.877,
        "laps": 21,
        "id": 93002
    },
    {
        "name": "Christian Grzybowski",
        "kilometers": 106.038,
        "laps": 18,
        "id": 18643
    },
    {
        "name": "Jimenez Dante",
        "kilometers": 105.156,
        "laps": 18,
        "id": 27013
    },
    {
        "name": "Philipp Schlegel",
        "kilometers": 104.526,
        "laps": 18,
        "id": 25830
    },
    {
        "name": "Juan P. Montya",
        "kilometers": 104.274,
        "laps": 18,
        "id": 22557
    },
    {
        "name": "Bontank Smith",
        "kilometers": 104.274,
        "laps": 18,
        "id": 59280
    },
    {
        "name": "Martin Schulz",
        "kilometers": 103.632,
        "laps": 24,
        "id": 17070
    },
    {
        "name": "Ben Dodger",
        "kilometers": 103.632,
        "laps": 24,
        "id": 124491
    },
    {
        "name": "Luca Lo Monaco",
        "kilometers": 103.632,
        "laps": 24,
        "id": 88497
    },
    {
        "name": "Robin Phillipps",
        "kilometers": 103.632,
        "laps": 24,
        "id": 41064
    },
    {
        "name": "Miguel Pachon",
        "kilometers": 100.147,
        "laps": 17,
        "id": 29892
    },
    {
        "name": "Gustavo Rodriguez",
        "kilometers": 99.314,
        "laps": 23,
        "id": 98055
    },
    {
        "name": "Carl Hightower",
        "kilometers": 99.18,
        "laps": 20,
        "id": 49331
    },
    {
        "name": "Evan Gates",
        "kilometers": 98.481,
        "laps": 17,
        "id": 78052
    },
    {
        "name": "Dante Wright",
        "kilometers": 98.481,
        "laps": 17,
        "id": 52907
    },
    {
        "name": "Martin LEONARDI",
        "kilometers": 98.478,
        "laps": 18,
        "id": 120332
    },
    {
        "name": "Gabor Szabo",
        "kilometers": 97.755,
        "laps": 21,
        "id": 57575
    },
    {
        "name": "Mat Wemhoff",
        "kilometers": 97.732,
        "laps": 4,
        "id": 145294
    },
    {
        "name": "Kieran Robertson",
        "kilometers": 97.732,
        "laps": 4,
        "id": 39793
    },
    {
        "name": "Kian Murdolo",
        "kilometers": 97.603,
        "laps": 19,
        "id": 192220
    },
    {
        "name": "Samir Foch",
        "kilometers": 96.12,
        "laps": 24,
        "id": 2683
    },
    {
        "name": "Łukasz Winiecki",
        "kilometers": 94.996,
        "laps": 22,
        "id": 33018
    },
    {
        "name": "Diego Alessandri",
        "kilometers": 94.996,
        "laps": 22,
        "id": 6829
    },
    {
        "name": "Remo Gaubatz",
        "kilometers": 94.962,
        "laps": 21,
        "id": 86951
    },
    {
        "name": "Mick Idler",
        "kilometers": 94.962,
        "laps": 21,
        "id": 62283
    },
    {
        "name": "Keiichi Räikkönen | SRT",
        "kilometers": 94.962,
        "laps": 21,
        "id": 106847
    },
    {
        "name": "Adrien Dangleterre",
        "kilometers": 93.472,
        "laps": 16,
        "id": 83150
    },
    {
        "name": "Easton Finger",
        "kilometers": 93.1,
        "laps": 20,
        "id": 189666
    },
    {
        "name": "Evgeniy Doneckiy",
        "kilometers": 92.912,
        "laps": 16,
        "id": 111555
    },
    {
        "name": "Luis Matos da Costa",
        "kilometers": 92.688,
        "laps": 16,
        "id": 199164
    },
    {
        "name": "Robert Hasl",
        "kilometers": 92.466,
        "laps": 18,
        "id": 12508
    },
    {
        "name": "Carlos Escobar",
        "kilometers": 92.466,
        "laps": 18,
        "id": 50760
    },
    {
        "name": "Ben Schmit",
        "kilometers": 92.466,
        "laps": 18,
        "id": 162628
    },
    {
        "name": "Pong Lenis",
        "kilometers": 92.466,
        "laps": 18,
        "id": 135459
    },
    {
        "name": "Felix Vier",
        "kilometers": 92.466,
        "laps": 18,
        "id": 26419
    },
    {
        "name": "Dirk Karp | FTD",
        "kilometers": 92.466,
        "laps": 18,
        "id": 85954
    },
    {
        "name": "Marek Spinkel",
        "kilometers": 92.466,
        "laps": 18,
        "id": 147597
    },
    {
        "name": "DUCAMP Romain",
        "kilometers": 92.466,
        "laps": 18,
        "id": 150493
    },
    {
        "name": "Kevin Fast",
        "kilometers": 92.466,
        "laps": 18,
        "id": 166685
    },
    {
        "name": "Tom Ruhstorfer",
        "kilometers": 92.466,
        "laps": 18,
        "id": 139163
    },
    {
        "name": "Miroslav Tregub",
        "kilometers": 92.466,
        "laps": 18,
        "id": 160874
    },
    {
        "name": "David Röhrl",
        "kilometers": 91.052,
        "laps": 13,
        "id": 45009
    },
    {
        "name": "George Crocket",
        "kilometers": 90.678,
        "laps": 21,
        "id": 6704
    },
    {
        "name": "Nick Bear",
        "kilometers": 90.678,
        "laps": 21,
        "id": 45842
    },
    {
        "name": "Walter Sciacca",
        "kilometers": 90.678,
        "laps": 21,
        "id": 14143
    },
    {
        "name": "Alejandro Garcia",
        "kilometers": 90.678,
        "laps": 21,
        "id": 21859
    },
    {
        "name": "Jonnie Gardner",
        "kilometers": 90.678,
        "laps": 21,
        "id": 102023
    },
    {
        "name": "Stan Brendt",
        "kilometers": 88.365,
        "laps": 15,
        "id": 100871
    },
    {
        "name": "Ian Cox",
        "kilometers": 88.365,
        "laps": 15,
        "id": 94176
    },
    {
        "name": "Radoslaw Mechlinski",
        "kilometers": 87.63,
        "laps": 15,
        "id": 142302
    },
    {
        "name": "Brandon Pfeiffer",
        "kilometers": 87.329,
        "laps": 17,
        "id": 82504
    },
    {
        "name": "Sven Buschow",
        "kilometers": 87.329,
        "laps": 17,
        "id": 156924
    },
    {
        "name": "Louis Mattlin",
        "kilometers": 87.329,
        "laps": 17,
        "id": 156333
    },
    {
        "name": "Jan Weber [SRK]",
        "kilometers": 87.329,
        "laps": 17,
        "id": 115853
    },
    {
        "name": "Nick Vermont",
        "kilometers": 87.329,
        "laps": 17,
        "id": 70898
    },
    {
        "name": "Chuck Maurice",
        "kilometers": 87.329,
        "laps": 17,
        "id": 96685
    },
    {
        "name": "Bitzer Schneck | FTD",
        "kilometers": 87.329,
        "laps": 17,
        "id": 87547
    },
    {
        "name": "Deleted User",
        "kilometers": 87.329,
        "laps": 17,
        "id": 196029
    },
    {
        "name": "Jelle Brocken",
        "kilometers": 87.329,
        "laps": 17,
        "id": 34967
    },
    {
        "name": "Ivan Sandu",
        "kilometers": 87.329,
        "laps": 17,
        "id": 190167
    },
    {
        "name": "Philipp Goslar",
        "kilometers": 87.329,
        "laps": 17,
        "id": 1647
    },
    {
        "name": "Iván Fornés",
        "kilometers": 87.329,
        "laps": 17,
        "id": 28196
    },
    {
        "name": "Omar Garbolino",
        "kilometers": 87.329,
        "laps": 17,
        "id": 106544
    },
    {
        "name": "Diego Speranzini",
        "kilometers": 87.329,
        "laps": 17,
        "id": 120293
    },
    {
        "name": "André Castro",
        "kilometers": 87.329,
        "laps": 17,
        "id": 78976
    },
    {
        "name": "christian la rocca",
        "kilometers": 87.329,
        "laps": 17,
        "id": 79238
    },
    {
        "name": "Francisco Perez",
        "kilometers": 87.329,
        "laps": 17,
        "id": 146599
    },
    {
        "name": "Dominik Fieder",
        "kilometers": 87.329,
        "laps": 17,
        "id": 143456
    },
    {
        "name": "Johny Forallio",
        "kilometers": 87.329,
        "laps": 17,
        "id": 30210
    },
    {
        "name": "Matteo Righetti",
        "kilometers": 87.329,
        "laps": 17,
        "id": 161476
    },
    {
        "name": "Flavio Kaufmann",
        "kilometers": 86.895,
        "laps": 15,
        "id": 89744
    },
    {
        "name": "Holger Schmitz",
        "kilometers": 86.36,
        "laps": 20,
        "id": 99623
    },
    {
        "name": "Volpert Briel",
        "kilometers": 84.105,
        "laps": 21,
        "id": 130811
    },
    {
        "name": "Mariusz Pokładek",
        "kilometers": 84.105,
        "laps": 21,
        "id": 96598
    },
    {
        "name": "Ernst Buiteman",
        "kilometers": 82.192,
        "laps": 16,
        "id": 34685
    },
    {
        "name": "Felix van Delft",
        "kilometers": 82.192,
        "laps": 16,
        "id": 56185
    },
    {
        "name": "Tomáš Purmenský",
        "kilometers": 82.192,
        "laps": 16,
        "id": 176038
    },
    {
        "name": "Claudiu Dulipovic",
        "kilometers": 82.192,
        "laps": 16,
        "id": 33500
    },
    {
        "name": "Alexander Turek",
        "kilometers": 82.192,
        "laps": 16,
        "id": 148586
    },
    {
        "name": "pdrone vidal",
        "kilometers": 82.192,
        "laps": 16,
        "id": 33968
    },
    {
        "name": "Joris Schnettberg | NOR",
        "kilometers": 82.192,
        "laps": 16,
        "id": 119991
    },
    {
        "name": "Alex Lozano",
        "kilometers": 82.192,
        "laps": 16,
        "id": 100344
    },
    {
        "name": "Samuele Iula",
        "kilometers": 82.192,
        "laps": 16,
        "id": 127391
    },
    {
        "name": "Fran Lanza",
        "kilometers": 82.192,
        "laps": 16,
        "id": 160831
    },
    {
        "name": "Loïc Kocher",
        "kilometers": 82.192,
        "laps": 16,
        "id": 121639
    },
    {
        "name": "Marcel Penzkofer | FSR",
        "kilometers": 82.042,
        "laps": 19,
        "id": 54067
    },
    {
        "name": "Deleted User",
        "kilometers": 81.788,
        "laps": 14,
        "id": 52132
    },
    {
        "name": "Luka Dedeurwaerder",
        "kilometers": 81.396,
        "laps": 18,
        "id": 126130
    },
    {
        "name": "Sébastien Golay [Swiss RC]",
        "kilometers": 81.102,
        "laps": 14,
        "id": 62024
    },
    {
        "name": "Albert Gorocz",
        "kilometers": 79.344,
        "laps": 16,
        "id": 39001
    },
    {
        "name": "Jens Mönkmeyer / RSL",
        "kilometers": 79.135,
        "laps": 17,
        "id": 62475
    },
    {
        "name": "Richard Liss",
        "kilometers": 77.055,
        "laps": 15,
        "id": 202944
    },
    {
        "name": "Hendrik Schlage",
        "kilometers": 77.055,
        "laps": 15,
        "id": 86165
    },
    {
        "name": "Paul Hochrainer",
        "kilometers": 77.055,
        "laps": 15,
        "id": 4095
    },
    {
        "name": "Emiliano Abregu",
        "kilometers": 77.055,
        "laps": 15,
        "id": 185598
    },
    {
        "name": "Philipp Kamperdicks | NOR",
        "kilometers": 77.055,
        "laps": 15,
        "id": 101372
    },
    {
        "name": "Juho Väinälä",
        "kilometers": 77.055,
        "laps": 15,
        "id": 93744
    },
    {
        "name": "Dieter Hochrainer",
        "kilometers": 77.055,
        "laps": 15,
        "id": 74903
    },
    {
        "name": "Jaroslav Dolejš",
        "kilometers": 77.055,
        "laps": 15,
        "id": 199995
    },
    {
        "name": "Lucas Hanselmann | NOR",
        "kilometers": 77.055,
        "laps": 15,
        "id": 12641
    },
    {
        "name": "Lukas Müller",
        "kilometers": 77.055,
        "laps": 15,
        "id": 10579
    },
    {
        "name": "Vitaliy Barzykin",
        "kilometers": 77.055,
        "laps": 15,
        "id": 31000
    },
    {
        "name": "mauro pista",
        "kilometers": 77.055,
        "laps": 15,
        "id": 164437
    },
    {
        "name": "Peter Flamuri",
        "kilometers": 77.055,
        "laps": 15,
        "id": 182538
    },
    {
        "name": "Montey Python",
        "kilometers": 77.055,
        "laps": 15,
        "id": 24929
    },
    {
        "name": "Giuseppe Laruffa",
        "kilometers": 77.055,
        "laps": 15,
        "id": 71584
    },
    {
        "name": "Adrian Lorenz",
        "kilometers": 77.055,
        "laps": 15,
        "id": 143545
    },
    {
        "name": "Felice Scivoli [FMP]",
        "kilometers": 77.055,
        "laps": 15,
        "id": 200445
    },
    {
        "name": "Aleksandrs Kazaks",
        "kilometers": 76.209,
        "laps": 19,
        "id": 93317
    },
    {
        "name": "Germán Salgueiro",
        "kilometers": 73.299,
        "laps": 3,
        "id": 19475
    },
    {
        "name": "Loic Castreman",
        "kilometers": 73.299,
        "laps": 3,
        "id": 130315
    },
    {
        "name": "Nils Klauke I 53R",
        "kilometers": 73.299,
        "laps": 3,
        "id": 1552
    },
    {
        "name": "Maximilian Niederl",
        "kilometers": 72.198,
        "laps": 18,
        "id": 64154
    },
    {
        "name": "Marcel Weber",
        "kilometers": 71.918,
        "laps": 14,
        "id": 23601
    },
    {
        "name": "Lucas Melo",
        "kilometers": 71.918,
        "laps": 14,
        "id": 166788
    },
    {
        "name": "AITOR BAZAN",
        "kilometers": 71.918,
        "laps": 14,
        "id": 85293
    },
    {
        "name": "Edin Lozic",
        "kilometers": 71.918,
        "laps": 14,
        "id": 150314
    },
    {
        "name": "Oleg Baluev",
        "kilometers": 71.918,
        "laps": 14,
        "id": 59709
    },
    {
        "name": "Mantvydas Likas",
        "kilometers": 71.918,
        "laps": 14,
        "id": 202903
    },
    {
        "name": "Fabian Lew",
        "kilometers": 71.918,
        "laps": 14,
        "id": 119329
    },
    {
        "name": "Yago  Alves Cirino",
        "kilometers": 71.918,
        "laps": 14,
        "id": 114837
    },
    {
        "name": "Luigi Maselli",
        "kilometers": 71.918,
        "laps": 14,
        "id": 96657
    },
    {
        "name": "Bob Red",
        "kilometers": 71.918,
        "laps": 14,
        "id": 16103
    },
    {
        "name": "Ivaylo kirilov",
        "kilometers": 71.918,
        "laps": 14,
        "id": 201609
    },
    {
        "name": "Mark Stephens",
        "kilometers": 66.781,
        "laps": 13,
        "id": 2992
    },
    {
        "name": "Michał Kuśmierczyk",
        "kilometers": 66.781,
        "laps": 13,
        "id": 130974
    },
    {
        "name": "Daniel Jama",
        "kilometers": 66.781,
        "laps": 13,
        "id": 54378
    },
    {
        "name": "Christiaan Venter",
        "kilometers": 66.781,
        "laps": 13,
        "id": 33600
    },
    {
        "name": "Helder Marques",
        "kilometers": 66.781,
        "laps": 13,
        "id": 77603
    },
    {
        "name": "Felix Scheider",
        "kilometers": 63.723,
        "laps": 11,
        "id": 77063
    },
    {
        "name": "Mika Lipinski",
        "kilometers": 61.644,
        "laps": 12,
        "id": 200508
    },
    {
        "name": "Sergio Revilla",
        "kilometers": 61.644,
        "laps": 12,
        "id": 5324
    },
    {
        "name": "James Hewitt",
        "kilometers": 56.507,
        "laps": 11,
        "id": 67602
    },
    {
        "name": "Carlo Logi",
        "kilometers": 56.507,
        "laps": 11,
        "id": 73210
    },
    {
        "name": "Mattias Kõrge",
        "kilometers": 51.37,
        "laps": 10,
        "id": 22994
    },
    {
        "name": "Lanor Rahim",
        "kilometers": 48.866,
        "laps": 2,
        "id": 33442
    },
    {
        "name": "Botond Bogos",
        "kilometers": 48.866,
        "laps": 2,
        "id": 112365
    },
    {
        "name": "Andrew Ryz",
        "kilometers": 46.233,
        "laps": 9,
        "id": 22449
    },
    {
        "name": "Jon Brown",
        "kilometers": 41.096,
        "laps": 8,
        "id": 195062
    },
    {
        "name": "hugo quiroga",
        "kilometers": 36.176,
        "laps": 8,
        "id": 100223
    },
    {
        "name": "Frank Shackleton",
        "kilometers": 35.959,
        "laps": 7,
        "id": 124215
    },
    {
        "name": "Corentin Dugoulet",
        "kilometers": 34.713,
        "laps": 7,
        "id": 102755
    },
    {
        "name": "Alberto Laurella | ACRT",
        "kilometers": 25.908,
        "laps": 6,
        "id": 62114
    },
    {
        "name": "Josh Stelli",
        "kilometers": 24.433,
        "laps": 1,
        "id": 7700
    },
    {
        "name": "Jan Suermann",
        "kilometers": 24.433,
        "laps": 1,
        "id": 107117
    },
    {
        "name": "Rodrigue Regnier",
        "kilometers": 24.03,
        "laps": 6,
        "id": 68774
    },
    {
        "name": "steve shaw",
        "kilometers": 16.044,
        "laps": 4,
        "id": 9262
    },
    {
        "name": "Steve Rosenbaum",
        "kilometers": 15.411,
        "laps": 3,
        "id": 977
    },
    {
        "name": "Juan Cervantes",
        "kilometers": 15.411,
        "laps": 3,
        "id": 81810
    },
    {
        "name": "Takumi Akatuki",
        "kilometers": 5.842,
        "laps": 1,
        "id": 80357
    }
]